{
  "data": [
    {
      "id": 3,
      "attributes": {
        "video_name": "Health",
        "first_validator": null,
        "second_validator": null,
        "third_validator": null,
        "final_gloss": null,
        "video_url": "https://popular-birds-9e1d0b64bf.media.strapiapp.com/MVI_3949_bb67884fab.MOV",
        "createdAt": "2024-06-02T18:12:12.061Z",
        "updatedAt": "2024-06-02T18:12:12.061Z",
        "publishedAt": "2024-06-02T18:12:12.056Z"
      }
    },
    {
      "id": 4,
      "attributes": {
        "video_name": "Human",
        "first_validator": null,
        "second_validator": null,
        "third_validator": null,
        "final_gloss": null,
        "video_url": "https://popular-birds-9e1d0b64bf.media.strapiapp.com/MVI_3950_1a796f8435.MOV",
        "createdAt": "2024-06-02T18:12:59.010Z",
        "updatedAt": "2024-06-02T18:12:59.010Z",
        "publishedAt": "2024-06-02T18:12:59.001Z"
      }
    },
    {
      "id": 5,
      "attributes": {
        "video_name": "Head",
        "first_validator": null,
        "second_validator": null,
        "third_validator": null,
        "final_gloss": null,
        "video_url": "https://popular-birds-9e1d0b64bf.media.strapiapp.com/MVI_3951_baf785c161.MOV",
        "createdAt": "2024-06-02T18:13:27.776Z",
        "updatedAt": "2024-06-02T18:13:27.776Z",
        "publishedAt": "2024-06-02T18:13:27.770Z"
      }
    },
    {
      "id": 6,
      "attributes": {
        "video_name": "Mind",
        "first_validator": null,
        "second_validator": null,
        "third_validator": null,
        "final_gloss": null,
        "video_url": "https://popular-birds-9e1d0b64bf.media.strapiapp.com/MVI_3952_f71a7d1663.MOV",
        "createdAt": "2024-06-02T18:13:54.099Z",
        "updatedAt": "2024-06-02T18:13:54.099Z",
        "publishedAt": "2024-06-02T18:13:54.092Z"
      }
    },
    {
      "id": 7,
      "attributes": {
        "video_name": "Brain",
        "first_validator": null,
        "second_validator": null,
        "third_validator": null,
        "final_gloss": null,
        "video_url": "https://popular-birds-9e1d0b64bf.media.strapiapp.com/MVI_3953_657bafe057.MOV",
        "createdAt": "2024-06-02T18:14:21.794Z",
        "updatedAt": "2024-06-02T18:14:21.794Z",
        "publishedAt": "2024-06-02T18:14:21.785Z"
      }
    },
    {
      "id": 8,
      "attributes": {
        "video_name": "Live",
        "first_validator": null,
        "second_validator": null,
        "third_validator": null,
        "final_gloss": null,
        "video_url": "https://popular-birds-9e1d0b64bf.media.strapiapp.com/MVI_3954_b75c91858b.MOV",
        "createdAt": "2024-06-02T18:14:56.507Z",
        "updatedAt": "2024-06-02T18:14:56.507Z",
        "publishedAt": "2024-06-02T18:14:56.499Z"
      }
    },
    {
      "id": 9,
      "attributes": {
        "video_name": "Face",
        "first_validator": null,
        "second_validator": null,
        "third_validator": null,
        "final_gloss": null,
        "video_url": "https://popular-birds-9e1d0b64bf.media.strapiapp.com/MVI_3955_00d69224f1.MOV",
        "createdAt": "2024-06-02T18:15:23.558Z",
        "updatedAt": "2024-06-02T18:15:23.558Z",
        "publishedAt": "2024-06-02T18:15:23.553Z"
      }
    },
    {
      "id": 10,
      "attributes": {
        "video_name": "Eye",
        "first_validator": null,
        "second_validator": null,
        "third_validator": null,
        "final_gloss": null,
        "video_url": "https://popular-birds-9e1d0b64bf.media.strapiapp.com/MVI_3956_dc13ebe024.MOV",
        "createdAt": "2024-06-02T18:16:12.018Z",
        "updatedAt": "2024-06-02T18:16:12.018Z",
        "publishedAt": "2024-06-02T18:16:12.011Z"
      }
    },
    {
      "id": 11,
      "attributes": {
        "video_name": "Ear",
        "first_validator": null,
        "second_validator": null,
        "third_validator": null,
        "final_gloss": null,
        "video_url": "https://popular-birds-9e1d0b64bf.media.strapiapp.com/MVI_3957_54f8d1b974.MOV",
        "createdAt": "2024-06-02T18:16:47.883Z",
        "updatedAt": "2024-06-02T18:16:47.883Z",
        "publishedAt": "2024-06-02T18:16:47.874Z"
      }
    },
    {
      "id": 12,
      "attributes": {
        "video_name": "Nose",
        "first_validator": null,
        "second_validator": null,
        "third_validator": null,
        "final_gloss": null,
        "video_url": "https://popular-birds-9e1d0b64bf.media.strapiapp.com/MVI_3958_10d64c1ca3.MOV",
        "createdAt": "2024-06-02T18:17:12.490Z",
        "updatedAt": "2024-06-02T18:17:12.490Z",
        "publishedAt": "2024-06-02T18:17:12.480Z"
      }
    },
    {
      "id": 13,
      "attributes": {
        "video_name": "Mouth",
        "first_validator": null,
        "second_validator": null,
        "third_validator": null,
        "final_gloss": null,
        "video_url": "https://popular-birds-9e1d0b64bf.media.strapiapp.com/MVI_3959_6c8d060625.MOV",
        "createdAt": "2024-06-02T18:17:48.883Z",
        "updatedAt": "2024-06-02T18:17:48.883Z",
        "publishedAt": "2024-06-02T18:17:48.874Z"
      }
    },
    {
      "id": 14,
      "attributes": {
        "video_name": "Teeth",
        "first_validator": null,
        "second_validator": null,
        "third_validator": null,
        "final_gloss": null,
        "video_url": "https://popular-birds-9e1d0b64bf.media.strapiapp.com/MVI_3960_495930b79e.MOV",
        "createdAt": "2024-06-02T18:18:48.026Z",
        "updatedAt": "2024-06-02T18:18:48.026Z",
        "publishedAt": "2024-06-02T18:18:48.019Z"
      }
    },
    {
      "id": 15,
      "attributes": {
        "video_name": "Beard",
        "first_validator": null,
        "second_validator": null,
        "third_validator": null,
        "final_gloss": null,
        "video_url": "https://popular-birds-9e1d0b64bf.media.strapiapp.com/MVI_3961_76ea3594e5.MOV",
        "createdAt": "2024-06-02T18:19:22.378Z",
        "updatedAt": "2024-06-02T18:19:22.378Z",
        "publishedAt": "2024-06-02T18:19:22.367Z"
      }
    },
    {
      "id": 16,
      "attributes": {
        "video_name": "Hand",
        "first_validator": null,
        "second_validator": null,
        "third_validator": null,
        "final_gloss": null,
        "video_url": "https://popular-birds-9e1d0b64bf.media.strapiapp.com/MVI_3962_da743abdd1.MOV",
        "createdAt": "2024-06-02T18:19:42.818Z",
        "updatedAt": "2024-06-02T18:19:42.818Z",
        "publishedAt": "2024-06-02T18:19:42.813Z"
      }
    },
    {
      "id": 17,
      "attributes": {
        "video_name": "Feet",
        "first_validator": null,
        "second_validator": null,
        "third_validator": null,
        "final_gloss": null,
        "video_url": "https://popular-birds-9e1d0b64bf.media.strapiapp.com/MVI_3963_201f74cff5.MOV",
        "createdAt": "2024-06-02T18:21:38.375Z",
        "updatedAt": "2024-06-02T18:21:38.375Z",
        "publishedAt": "2024-06-02T18:21:38.354Z"
      }
    },
    {
      "id": 18,
      "attributes": {
        "video_name": "Blood",
        "first_validator": null,
        "second_validator": null,
        "third_validator": null,
        "final_gloss": null,
        "video_url": "https://popular-birds-9e1d0b64bf.media.strapiapp.com/MVI_3964_40570e22d2.MOV",
        "createdAt": "2024-06-02T18:22:09.968Z",
        "updatedAt": "2024-06-02T18:22:09.968Z",
        "publishedAt": "2024-06-02T18:22:09.962Z"
      }
    },
    {
      "id": 19,
      "attributes": {
        "video_name": "Breast",
        "first_validator": null,
        "second_validator": null,
        "third_validator": null,
        "final_gloss": null,
        "video_url": "https://popular-birds-9e1d0b64bf.media.strapiapp.com/MVI_3965_af78177b5c.MOV",
        "createdAt": "2024-06-02T18:22:41.578Z",
        "updatedAt": "2024-06-02T18:22:41.578Z",
        "publishedAt": "2024-06-02T18:22:41.568Z"
      }
    },
    {
      "id": 20,
      "attributes": {
        "video_name": "Penis",
        "first_validator": null,
        "second_validator": null,
        "third_validator": null,
        "final_gloss": null,
        "video_url": "https://popular-birds-9e1d0b64bf.media.strapiapp.com/MVI_3966_ce4aa82d1b.MOV",
        "createdAt": "2024-06-02T18:23:14.489Z",
        "updatedAt": "2024-06-02T18:23:14.489Z",
        "publishedAt": "2024-06-02T18:23:14.481Z"
      }
    },
    {
      "id": 21,
      "attributes": {
        "video_name": "Anus",
        "first_validator": null,
        "second_validator": null,
        "third_validator": null,
        "final_gloss": null,
        "video_url": "https://popular-birds-9e1d0b64bf.media.strapiapp.com/MVI_3967_c79bc70b13.MOV",
        "createdAt": "2024-06-02T18:23:59.340Z",
        "updatedAt": "2024-06-02T18:23:59.340Z",
        "publishedAt": "2024-06-02T18:23:59.329Z"
      }
    },
    {
      "id": 22,
      "attributes": {
        "video_name": "Flatulence",
        "first_validator": null,
        "second_validator": null,
        "third_validator": null,
        "final_gloss": null,
        "video_url": "https://popular-birds-9e1d0b64bf.media.strapiapp.com/MVI_3968_ec06342cc3.MOV",
        "createdAt": "2024-06-02T18:24:37.559Z",
        "updatedAt": "2024-06-02T18:24:37.559Z",
        "publishedAt": "2024-06-02T18:24:37.552Z"
      }
    },
    {
      "id": 23,
      "attributes": {
        "video_name": "Spit",
        "first_validator": null,
        "second_validator": null,
        "third_validator": null,
        "final_gloss": null,
        "video_url": "https://popular-birds-9e1d0b64bf.media.strapiapp.com/MVI_3969_989c615e72.MOV",
        "createdAt": "2024-06-02T18:25:07.391Z",
        "updatedAt": "2024-06-02T18:25:07.391Z",
        "publishedAt": "2024-06-02T18:25:07.386Z"
      }
    },
    {
      "id": 24,
      "attributes": {
        "video_name": "Sweat",
        "first_validator": null,
        "second_validator": null,
        "third_validator": null,
        "final_gloss": null,
        "video_url": "https://popular-birds-9e1d0b64bf.media.strapiapp.com/MVI_3970_cc6d3e15fe.MOV",
        "createdAt": "2024-06-02T18:25:42.810Z",
        "updatedAt": "2024-06-02T18:25:42.810Z",
        "publishedAt": "2024-06-02T18:25:42.801Z"
      }
    },
    {
      "id": 25,
      "attributes": {
        "video_name": "Sleep",
        "first_validator": null,
        "second_validator": null,
        "third_validator": null,
        "final_gloss": null,
        "video_url": "https://popular-birds-9e1d0b64bf.media.strapiapp.com/MVI_3971_34c0a83936.MOV",
        "createdAt": "2024-06-02T18:26:10.117Z",
        "updatedAt": "2024-06-02T18:26:10.117Z",
        "publishedAt": "2024-06-02T18:26:10.110Z"
      }
    },
    {
      "id": 26,
      "attributes": {
        "video_name": "Lie down",
        "first_validator": null,
        "second_validator": null,
        "third_validator": null,
        "final_gloss": null,
        "video_url": "https://popular-birds-9e1d0b64bf.media.strapiapp.com/MVI_3972_709509ca0c.MOV",
        "createdAt": "2024-06-02T18:26:52.931Z",
        "updatedAt": "2024-06-02T18:26:52.931Z",
        "publishedAt": "2024-06-02T18:26:52.926Z"
      }
    },
    {
      "id": 27,
      "attributes": {
        "video_name": "Bath",
        "first_validator": null,
        "second_validator": null,
        "third_validator": null,
        "final_gloss": null,
        "video_url": "https://popular-birds-9e1d0b64bf.media.strapiapp.com/MVI_3973_b3b52af120.MOV",
        "createdAt": "2024-06-02T18:27:27.389Z",
        "updatedAt": "2024-06-02T18:27:27.389Z",
        "publishedAt": "2024-06-02T18:27:27.375Z"
      }
    }
  ],
  "meta": {
    "pagination": { "page": 1, "pageSize": 25, "pageCount": 11, "total": 267 }
  }
}
