{
  "current_page": 1,
  "data": [
    {
      "id": 1,
      "name": "file_names.txt",
      "path": "storage/file_names.txt",
      "created_at": "2024-09-23T21:55:20.000000Z",
      "updated_at": "2024-09-23T21:55:20.000000Z"
    },
    {
      "id": 2,
      "name": "Mvi 3949.mp4",
      "path": "storage/Mvi 3949.mp4",
      "created_at": "2024-09-23T21:55:20.000000Z",
      "updated_at": "2024-09-23T21:55:20.000000Z"
    },
    {
      "id": 3,
      "name": "Mvi 3950.mp4",
      "path": "storage/Mvi 3950.mp4",
      "created_at": "2024-09-23T21:55:20.000000Z",
      "updated_at": "2024-09-23T21:55:20.000000Z"
    },
    {
      "id": 4,
      "name": "Mvi 3951.mp4",
      "path": "storage/Mvi 3951.mp4",
      "created_at": "2024-09-23T21:55:21.000000Z",
      "updated_at": "2024-09-23T21:55:21.000000Z"
    },
    {
      "id": 5,
      "name": "Mvi 3952.mp4",
      "path": "storage/Mvi 3952.mp4",
      "created_at": "2024-09-23T21:55:21.000000Z",
      "updated_at": "2024-09-23T21:55:21.000000Z"
    },
    {
      "id": 6,
      "name": "Mvi 3953.mp4",
      "path": "storage/Mvi 3953.mp4",
      "created_at": "2024-09-23T21:55:21.000000Z",
      "updated_at": "2024-09-23T21:55:21.000000Z"
    },
    {
      "id": 7,
      "name": "Mvi 3954.mp4",
      "path": "storage/Mvi 3954.mp4",
      "created_at": "2024-09-23T21:55:21.000000Z",
      "updated_at": "2024-09-23T21:55:21.000000Z"
    },
    {
      "id": 8,
      "name": "Mvi 3955.mp4",
      "path": "storage/Mvi 3955.mp4",
      "created_at": "2024-09-23T21:55:21.000000Z",
      "updated_at": "2024-09-23T21:55:21.000000Z"
    },
    {
      "id": 9,
      "name": "Mvi 3956.mp4",
      "path": "storage/Mvi 3956.mp4",
      "created_at": "2024-09-23T21:55:22.000000Z",
      "updated_at": "2024-09-23T21:55:22.000000Z"
    },
    {
      "id": 10,
      "name": "Mvi 3957.mp4",
      "path": "storage/Mvi 3957.mp4",
      "created_at": "2024-09-23T21:55:22.000000Z",
      "updated_at": "2024-09-23T21:55:22.000000Z"
    },
    {
      "id": 11,
      "name": "Mvi 3958.mp4",
      "path": "storage/Mvi 3958.mp4",
      "created_at": "2024-09-23T21:55:22.000000Z",
      "updated_at": "2024-09-23T21:55:22.000000Z"
    },
    {
      "id": 12,
      "name": "Mvi 3959.mp4",
      "path": "storage/Mvi 3959.mp4",
      "created_at": "2024-09-23T21:55:22.000000Z",
      "updated_at": "2024-09-23T21:55:22.000000Z"
    },
    {
      "id": 13,
      "name": "Mvi 3960.mp4",
      "path": "storage/Mvi 3960.mp4",
      "created_at": "2024-09-23T21:55:22.000000Z",
      "updated_at": "2024-09-23T21:55:22.000000Z"
    },
    {
      "id": 14,
      "name": "Mvi 3961.mp4",
      "path": "storage/Mvi 3961.mp4",
      "created_at": "2024-09-23T21:55:23.000000Z",
      "updated_at": "2024-09-23T21:55:23.000000Z"
    },
    {
      "id": 15,
      "name": "Mvi 3962.mp4",
      "path": "storage/Mvi 3962.mp4",
      "created_at": "2024-09-23T21:55:23.000000Z",
      "updated_at": "2024-09-23T21:55:23.000000Z"
    }
  ],
  "first_page_url": "https://videos.vskuul.com/api/files?page=1",
  "from": 1,
  "last_page": 89,https://videos.vskuul.com/api/files?page=89
  "last_page_url": "",
  "links": [
    { "url": null, "label": "&laquo; Previous", "active": false },
    {
      "url": "https://videos.vskuul.com/api/files?page=1",
      "label": "1",
      "active": true
    },
    {
      "url": "https://videos.vskuul.com/api/files?page=2",
      "label": "2",
      "active": false
    },
    {
      "url": "https://videos.vskuul.com/api/files?page=3",
      "label": "3",
      "active": false
    },
    {
      "url": "https://videos.vskuul.com/api/files?page=4",
      "label": "4",
      "active": false
    },
    {
      "url": "https://videos.vskuul.com/api/files?page=5",
      "label": "5",
      "active": false
    },
    {
      "url": "https://videos.vskuul.com/api/files?page=6",
      "label": "6",
      "active": false
    },
    {
      "url": "https://videos.vskuul.com/api/files?page=7",
      "label": "7",
      "active": false
    },
    {
      "url": "https://videos.vskuul.com/api/files?page=8",
      "label": "8",
      "active": false
    },
    {
      "url": "https://videos.vskuul.com/api/files?page=9",
      "label": "9",
      "active": false
    },
    {
      "url": "https://videos.vskuul.com/api/files?page=10",
      "label": "10",
      "active": false
    },
    { "url": null, "label": "...", "active": false },
    {
      "url": "https://videos.vskuul.com/api/files?page=88",
      "label": "88",
      "active": false
    },
    {
      "url": "https://videos.vskuul.com/api/files?page=89",
      "label": "89",
      "active": false
    },
    {
      "url": "https://videos.vskuul.com/api/files?page=2",
      "label": "Next &raquo;",
      "active": false
    }
  ],
  "next_page_url": "https://videos.vskuul.com/api/files?page=2",
  "path": "https://videos.vskuul.com/api/files",
  "per_page": 15,
  "prev_page_url": null,
  "to": 15,
  "total": 1321
}
